﻿  ebentoak.c
  graphics.c
  imagen.c
  soinua.c
  text.c
  02simpleGameMain.c
  game02.c
  Generando código...
  02simpleGame.vcxproj -> C:\Users\oihan\Desktop\Mondragon\sdlExamplesVcWS\Debug\02simpleGame.exe
